%YAML 1.1
%TAG !u! tag:unity3d.com,2011:
--- !u!1001 &6797801756555427562
PrefabInstance:
  m_ObjectHideFlags: 0
  serializedVersion: 2
  m_Modification:
    m_TransformParent: {fileID: 0}
    m_Modifications:
    - target: {fileID: 3359654171378118012, guid: 43972f58b8c88e94ba25762f486a16df,
        type: 3}
      propertyPath: m_IsActive
      value: 1
      objectReference: {fileID: 0}
    - target: {fileID: 3359654171378118015, guid: 43972f58b8c88e94ba25762f486a16df,
        type: 3}
      propertyPath: m_AnchoredPosition.x
      value: -720.00006
      objectReference: {fileID: 0}
    - target: {fileID: 3359654171378118015, guid: 43972f58b8c88e94ba25762f486a16df,
        type: 3}
      propertyPath: m_SizeDelta.x
      value: 0
      objectReference: {fileID: 0}
    - target: {fileID: 3359654171441751514, guid: 43972f58b8c88e94ba25762f486a16df,
        type: 3}
      propertyPath: m_IsActive
      value: 1
      objectReference: {fileID: 0}
    - target: {fileID: 3359654171441751517, guid: 43972f58b8c88e94ba25762f486a16df,
        type: 3}
      propertyPath: m_AnchoredPosition.x
      value: 1080
      objectReference: {fileID: 0}
    - target: {fileID: 3359654171441751517, guid: 43972f58b8c88e94ba25762f486a16df,
        type: 3}
      propertyPath: m_SizeDelta.x
      value: 0
      objectReference: {fileID: 0}
    - target: {fileID: 3359654171455143724, guid: 43972f58b8c88e94ba25762f486a16df,
        type: 3}
      propertyPath: m_IsActive
      value: 1
      objectReference: {fileID: 0}
    - target: {fileID: 3359654171455143727, guid: 43972f58b8c88e94ba25762f486a16df,
        type: 3}
      propertyPath: m_AnchoredPosition.x
      value: -1080
      objectReference: {fileID: 0}
    - target: {fileID: 3359654171455143727, guid: 43972f58b8c88e94ba25762f486a16df,
        type: 3}
      propertyPath: m_SizeDelta.x
      value: 0
      objectReference: {fileID: 0}
    - target: {fileID: 3359654171875338561, guid: 43972f58b8c88e94ba25762f486a16df,
        type: 3}
      propertyPath: m_AnchoredPosition.x
      value: -360.00006
      objectReference: {fileID: 0}
    - target: {fileID: 3359654171875338561, guid: 43972f58b8c88e94ba25762f486a16df,
        type: 3}
      propertyPath: m_SizeDelta.x
      value: 0
      objectReference: {fileID: 0}
    - target: {fileID: 3359654171875338574, guid: 43972f58b8c88e94ba25762f486a16df,
        type: 3}
      propertyPath: m_IsActive
      value: 1
      objectReference: {fileID: 0}
    - target: {fileID: 3359654172038001658, guid: 43972f58b8c88e94ba25762f486a16df,
        type: 3}
      propertyPath: m_Name
      value: BackgroundPanel1080p
      objectReference: {fileID: 0}
    - target: {fileID: 3359654172038001658, guid: 43972f58b8c88e94ba25762f486a16df,
        type: 3}
      propertyPath: m_IsActive
      value: 1
      objectReference: {fileID: 0}
    - target: {fileID: 3359654172038001661, guid: 43972f58b8c88e94ba25762f486a16df,
        type: 3}
      propertyPath: m_LocalPosition.x
      value: 0
      objectReference: {fileID: 0}
    - target: {fileID: 3359654172038001661, guid: 43972f58b8c88e94ba25762f486a16df,
        type: 3}
      propertyPath: m_LocalPosition.y
      value: 0
      objectReference: {fileID: 0}
    - target: {fileID: 3359654172038001661, guid: 43972f58b8c88e94ba25762f486a16df,
        type: 3}
      propertyPath: m_LocalPosition.z
      value: 0
      objectReference: {fileID: 0}
    - target: {fileID: 3359654172038001661, guid: 43972f58b8c88e94ba25762f486a16df,
        type: 3}
      propertyPath: m_LocalRotation.x
      value: 0
      objectReference: {fileID: 0}
    - target: {fileID: 3359654172038001661, guid: 43972f58b8c88e94ba25762f486a16df,
        type: 3}
      propertyPath: m_LocalRotation.y
      value: 0
      objectReference: {fileID: 0}
    - target: {fileID: 3359654172038001661, guid: 43972f58b8c88e94ba25762f486a16df,
        type: 3}
      propertyPath: m_LocalRotation.z
      value: 0
      objectReference: {fileID: 0}
    - target: {fileID: 3359654172038001661, guid: 43972f58b8c88e94ba25762f486a16df,
        type: 3}
      propertyPath: m_LocalRotation.w
      value: 1
      objectReference: {fileID: 0}
    - target: {fileID: 3359654172038001661, guid: 43972f58b8c88e94ba25762f486a16df,
        type: 3}
      propertyPath: m_RootOrder
      value: 0
      objectReference: {fileID: 0}
    - target: {fileID: 3359654172038001661, guid: 43972f58b8c88e94ba25762f486a16df,
        type: 3}
      propertyPath: m_LocalEulerAnglesHint.x
      value: 0
      objectReference: {fileID: 0}
    - target: {fileID: 3359654172038001661, guid: 43972f58b8c88e94ba25762f486a16df,
        type: 3}
      propertyPath: m_LocalEulerAnglesHint.y
      value: 0
      objectReference: {fileID: 0}
    - target: {fileID: 3359654172038001661, guid: 43972f58b8c88e94ba25762f486a16df,
        type: 3}
      propertyPath: m_LocalEulerAnglesHint.z
      value: 0
      objectReference: {fileID: 0}
    - target: {fileID: 3359654172038001661, guid: 43972f58b8c88e94ba25762f486a16df,
        type: 3}
      propertyPath: m_AnchoredPosition.x
      value: 0
      objectReference: {fileID: 0}
    - target: {fileID: 3359654172038001661, guid: 43972f58b8c88e94ba25762f486a16df,
        type: 3}
      propertyPath: m_AnchoredPosition.y
      value: 0
      objectReference: {fileID: 0}
    - target: {fileID: 3359654172038001661, guid: 43972f58b8c88e94ba25762f486a16df,
        type: 3}
      propertyPath: m_SizeDelta.x
      value: 0
      objectReference: {fileID: 0}
    - target: {fileID: 3359654172038001661, guid: 43972f58b8c88e94ba25762f486a16df,
        type: 3}
      propertyPath: m_SizeDelta.y
      value: 0
      objectReference: {fileID: 0}
    - target: {fileID: 3359654172038001661, guid: 43972f58b8c88e94ba25762f486a16df,
        type: 3}
      propertyPath: m_AnchorMin.x
      value: 0
      objectReference: {fileID: 0}
    - target: {fileID: 3359654172038001661, guid: 43972f58b8c88e94ba25762f486a16df,
        type: 3}
      propertyPath: m_AnchorMin.y
      value: 0
      objectReference: {fileID: 0}
    - target: {fileID: 3359654172038001661, guid: 43972f58b8c88e94ba25762f486a16df,
        type: 3}
      propertyPath: m_AnchorMax.x
      value: 1
      objectReference: {fileID: 0}
    - target: {fileID: 3359654172038001661, guid: 43972f58b8c88e94ba25762f486a16df,
        type: 3}
      propertyPath: m_AnchorMax.y
      value: 1
      objectReference: {fileID: 0}
    - target: {fileID: 3359654172038001661, guid: 43972f58b8c88e94ba25762f486a16df,
        type: 3}
      propertyPath: m_Pivot.x
      value: 0.5
      objectReference: {fileID: 0}
    - target: {fileID: 3359654172038001661, guid: 43972f58b8c88e94ba25762f486a16df,
        type: 3}
      propertyPath: m_Pivot.y
      value: 0.5
      objectReference: {fileID: 0}
    - target: {fileID: 3359654172090474162, guid: 43972f58b8c88e94ba25762f486a16df,
        type: 3}
      propertyPath: m_IsActive
      value: 1
      objectReference: {fileID: 0}
    - target: {fileID: 3359654172090474165, guid: 43972f58b8c88e94ba25762f486a16df,
        type: 3}
      propertyPath: m_AnchoredPosition.x
      value: 0
      objectReference: {fileID: 0}
    - target: {fileID: 3359654172090474165, guid: 43972f58b8c88e94ba25762f486a16df,
        type: 3}
      propertyPath: m_SizeDelta.x
      value: 0
      objectReference: {fileID: 0}
    - target: {fileID: 3359654172343600314, guid: 43972f58b8c88e94ba25762f486a16df,
        type: 3}
      propertyPath: m_AnchoredPosition.x
      value: 720
      objectReference: {fileID: 0}
    - target: {fileID: 3359654172343600314, guid: 43972f58b8c88e94ba25762f486a16df,
        type: 3}
      propertyPath: m_SizeDelta.x
      value: 600
      objectReference: {fileID: 0}
    - target: {fileID: 3359654172343600315, guid: 43972f58b8c88e94ba25762f486a16df,
        type: 3}
      propertyPath: m_IsActive
      value: 1
      objectReference: {fileID: 0}
    - target: {fileID: 3359654172355711880, guid: 43972f58b8c88e94ba25762f486a16df,
        type: 3}
      propertyPath: m_AnchoredPosition.x
      value: 360
      objectReference: {fileID: 0}
    - target: {fileID: 3359654172355711881, guid: 43972f58b8c88e94ba25762f486a16df,
        type: 3}
      propertyPath: m_IsActive
      value: 1
      objectReference: {fileID: 0}
    m_RemovedComponents: []
  m_SourcePrefab: {fileID: 100100000, guid: 43972f58b8c88e94ba25762f486a16df, type: 3}
