%YAML 1.1
%TAG !u! tag:unity3d.com,2011:
--- !u!1 &2672093887378398278
GameObject:
  m_ObjectHideFlags: 0
  m_CorrespondingSourceObject: {fileID: 0}
  m_PrefabInstance: {fileID: 0}
  m_PrefabAsset: {fileID: 0}
  serializedVersion: 6
  m_Component:
  - component: {fileID: 1930909300420833701}
  m_Layer: 9
  m_Name: Pack4
  m_TagString: Ground
  m_Icon: {fileID: 0}
  m_NavMeshLayer: 0
  m_StaticEditorFlags: 4294967295
  m_IsActive: 1
--- !u!4 &1930909300420833701
Transform:
  m_ObjectHideFlags: 0
  m_CorrespondingSourceObject: {fileID: 0}
  m_PrefabInstance: {fileID: 0}
  m_PrefabAsset: {fileID: 0}
  m_GameObject: {fileID: 2672093887378398278}
  m_LocalRotation: {x: -0, y: -0, z: -0, w: 1}
  m_LocalPosition: {x: 153.85, y: 3.73, z: 15.8}
  m_LocalScale: {x: 1, y: 1, z: 1}
  m_Children:
  - {fileID: 4469999345784071873}
  m_Father: {fileID: 0}
  m_RootOrder: 0
  m_LocalEulerAnglesHint: {x: 0, y: 0, z: 0}
--- !u!1001 &4143902944003965226
PrefabInstance:
  m_ObjectHideFlags: 0
  serializedVersion: 2
  m_Modification:
    m_TransformParent: {fileID: 1930909300420833701}
    m_Modifications:
    - target: {fileID: -8679921383154817045, guid: b271c8b47cc763d4b81f18af89974679,
        type: 3}
      propertyPath: m_LocalPosition.x
      value: -0
      objectReference: {fileID: 0}
    - target: {fileID: -8679921383154817045, guid: b271c8b47cc763d4b81f18af89974679,
        type: 3}
      propertyPath: m_LocalPosition.y
      value: 0
      objectReference: {fileID: 0}
    - target: {fileID: -8679921383154817045, guid: b271c8b47cc763d4b81f18af89974679,
        type: 3}
      propertyPath: m_LocalPosition.z
      value: 0
      objectReference: {fileID: 0}
    - target: {fileID: -8679921383154817045, guid: b271c8b47cc763d4b81f18af89974679,
        type: 3}
      propertyPath: m_LocalRotation.x
      value: -0.7071068
      objectReference: {fileID: 0}
    - target: {fileID: -8679921383154817045, guid: b271c8b47cc763d4b81f18af89974679,
        type: 3}
      propertyPath: m_LocalRotation.y
      value: 0
      objectReference: {fileID: 0}
    - target: {fileID: -8679921383154817045, guid: b271c8b47cc763d4b81f18af89974679,
        type: 3}
      propertyPath: m_LocalRotation.z
      value: -0
      objectReference: {fileID: 0}
    - target: {fileID: -8679921383154817045, guid: b271c8b47cc763d4b81f18af89974679,
        type: 3}
      propertyPath: m_LocalRotation.w
      value: 0.7071067
      objectReference: {fileID: 0}
    - target: {fileID: -8679921383154817045, guid: b271c8b47cc763d4b81f18af89974679,
        type: 3}
      propertyPath: m_RootOrder
      value: 0
      objectReference: {fileID: 0}
    - target: {fileID: -8679921383154817045, guid: b271c8b47cc763d4b81f18af89974679,
        type: 3}
      propertyPath: m_LocalEulerAnglesHint.x
      value: 0
      objectReference: {fileID: 0}
    - target: {fileID: -8679921383154817045, guid: b271c8b47cc763d4b81f18af89974679,
        type: 3}
      propertyPath: m_LocalEulerAnglesHint.y
      value: 0
      objectReference: {fileID: 0}
    - target: {fileID: -8679921383154817045, guid: b271c8b47cc763d4b81f18af89974679,
        type: 3}
      propertyPath: m_LocalEulerAnglesHint.z
      value: 0
      objectReference: {fileID: 0}
    - target: {fileID: -7511558181221131132, guid: b271c8b47cc763d4b81f18af89974679,
        type: 3}
      propertyPath: m_Materials.Array.data[0]
      value: 
      objectReference: {fileID: 2100000, guid: 3e314c612d10f8443803690b1cc16d0d, type: 2}
    - target: {fileID: 919132149155446097, guid: b271c8b47cc763d4b81f18af89974679,
        type: 3}
      propertyPath: m_Name
      value: pack
      objectReference: {fileID: 0}
    - target: {fileID: 919132149155446097, guid: b271c8b47cc763d4b81f18af89974679,
        type: 3}
      propertyPath: m_StaticEditorFlags
      value: 4294967295
      objectReference: {fileID: 0}
    m_RemovedComponents: []
  m_SourcePrefab: {fileID: 100100000, guid: b271c8b47cc763d4b81f18af89974679, type: 3}
--- !u!4 &4469999345784071873 stripped
Transform:
  m_CorrespondingSourceObject: {fileID: -8679921383154817045, guid: b271c8b47cc763d4b81f18af89974679,
    type: 3}
  m_PrefabInstance: {fileID: 4143902944003965226}
  m_PrefabAsset: {fileID: 0}
