%YAML 1.1
%TAG !u! tag:unity3d.com,2011:
--- !u!1 &8307245811154284391
GameObject:
  m_ObjectHideFlags: 0
  m_CorrespondingSourceObject: {fileID: 0}
  m_PrefabInstance: {fileID: 0}
  m_PrefabAsset: {fileID: 0}
  serializedVersion: 6
  m_Component:
  - component: {fileID: 9007294137775028020}
  m_Layer: 9
  m_Name: TriangleC 1
  m_TagString: Ground
  m_Icon: {fileID: 0}
  m_NavMeshLayer: 0
  m_StaticEditorFlags: 4294967295
  m_IsActive: 1
--- !u!4 &9007294137775028020
Transform:
  m_ObjectHideFlags: 0
  m_CorrespondingSourceObject: {fileID: 0}
  m_PrefabInstance: {fileID: 0}
  m_PrefabAsset: {fileID: 0}
  m_GameObject: {fileID: 8307245811154284391}
  m_LocalRotation: {x: -0, y: -0, z: -0, w: 1}
  m_LocalPosition: {x: 1.7500002, y: 3.49, z: 0}
  m_LocalScale: {x: 1, y: 1, z: 1}
  m_Children:
  - {fileID: 2695188209857319107}
  m_Father: {fileID: 0}
  m_RootOrder: 0
  m_LocalEulerAnglesHint: {x: 0, y: 0, z: 0}
--- !u!1001 &2516810809949075240
PrefabInstance:
  m_ObjectHideFlags: 0
  serializedVersion: 2
  m_Modification:
    m_TransformParent: {fileID: 9007294137775028020}
    m_Modifications:
    - target: {fileID: -8679921383154817045, guid: 2b4b4eee267af5c43bd883a82e1b43f3,
        type: 3}
      propertyPath: m_LocalPosition.x
      value: -0
      objectReference: {fileID: 0}
    - target: {fileID: -8679921383154817045, guid: 2b4b4eee267af5c43bd883a82e1b43f3,
        type: 3}
      propertyPath: m_LocalPosition.y
      value: 0
      objectReference: {fileID: 0}
    - target: {fileID: -8679921383154817045, guid: 2b4b4eee267af5c43bd883a82e1b43f3,
        type: 3}
      propertyPath: m_LocalPosition.z
      value: 0
      objectReference: {fileID: 0}
    - target: {fileID: -8679921383154817045, guid: 2b4b4eee267af5c43bd883a82e1b43f3,
        type: 3}
      propertyPath: m_LocalRotation.x
      value: -0.49991274
      objectReference: {fileID: 0}
    - target: {fileID: -8679921383154817045, guid: 2b4b4eee267af5c43bd883a82e1b43f3,
        type: 3}
      propertyPath: m_LocalRotation.y
      value: 0.50008726
      objectReference: {fileID: 0}
    - target: {fileID: -8679921383154817045, guid: 2b4b4eee267af5c43bd883a82e1b43f3,
        type: 3}
      propertyPath: m_LocalRotation.z
      value: 0.49991274
      objectReference: {fileID: 0}
    - target: {fileID: -8679921383154817045, guid: 2b4b4eee267af5c43bd883a82e1b43f3,
        type: 3}
      propertyPath: m_LocalRotation.w
      value: 0.50008726
      objectReference: {fileID: 0}
    - target: {fileID: -8679921383154817045, guid: 2b4b4eee267af5c43bd883a82e1b43f3,
        type: 3}
      propertyPath: m_RootOrder
      value: 0
      objectReference: {fileID: 0}
    - target: {fileID: -8679921383154817045, guid: 2b4b4eee267af5c43bd883a82e1b43f3,
        type: 3}
      propertyPath: m_LocalEulerAnglesHint.x
      value: -89.98
      objectReference: {fileID: 0}
    - target: {fileID: -8679921383154817045, guid: 2b4b4eee267af5c43bd883a82e1b43f3,
        type: 3}
      propertyPath: m_LocalEulerAnglesHint.y
      value: 90
      objectReference: {fileID: 0}
    - target: {fileID: -8679921383154817045, guid: 2b4b4eee267af5c43bd883a82e1b43f3,
        type: 3}
      propertyPath: m_LocalEulerAnglesHint.z
      value: 0
      objectReference: {fileID: 0}
    - target: {fileID: 919132149155446097, guid: 2b4b4eee267af5c43bd883a82e1b43f3,
        type: 3}
      propertyPath: m_Name
      value: triangle2
      objectReference: {fileID: 0}
    - target: {fileID: 919132149155446097, guid: 2b4b4eee267af5c43bd883a82e1b43f3,
        type: 3}
      propertyPath: m_StaticEditorFlags
      value: 4294967295
      objectReference: {fileID: 0}
    m_RemovedComponents: []
  m_SourcePrefab: {fileID: 100100000, guid: 2b4b4eee267af5c43bd883a82e1b43f3, type: 3}
--- !u!4 &2695188209857319107 stripped
Transform:
  m_CorrespondingSourceObject: {fileID: -8679921383154817045, guid: 2b4b4eee267af5c43bd883a82e1b43f3,
    type: 3}
  m_PrefabInstance: {fileID: 2516810809949075240}
  m_PrefabAsset: {fileID: 0}
