%YAML 1.1
%TAG !u! tag:unity3d.com,2011:
--- !u!78 &1
TagManager:
  serializedVersion: 2
  tags:
  - Crossing
  - hook
  - Ground
  - Bullet
  - TieBullet
  - Enemy
  - MouseHole
  - Inventory
  - Death
  - pushable
  layers:
  - Default
  - TransparentFX
  - Ignore Raycast
  - 
  - Water
  - UI
  - 
  - 
  - Enemy
  - Ground
  - Rope
  - Pivot
  - Pushable
  - PlayerBullet
  - Player
  - 
  - 
  - 
  - 
  - 
  - 
  - 
  - 
  - 
  - 
  - 
  - 
  - 
  - 
  - 
  - 
  - 
  m_SortingLayers:
  - name: Default
    uniqueID: 0
    locked: 0
